<?xml version="1.0" encoding="UTF-8"?>
<svg width="91px" height="91px" viewBox="0 0 91 91" version="1.1" xmlns="http://www.w3.org/2000/svg" xmlns:xlink="http://www.w3.org/1999/xlink">
    <title>sign-illustration</title>
    <g id="Digital-Roadshow" stroke="none" stroke-width="1" fill="none" fill-rule="evenodd">
        <g id="Data-Room-/-No-NDA" transform="translate(-564.000000, -316.000000)" fill="#8E8E8E" fill-rule="nonzero">
            <g id="sign-illustration" transform="translate(564.000000, 316.000000)">
                <path d="M4.94157947,81.8148148 L9.44157947,81.8148148 L9.44157947,86.3148148 C9.44157947,88.8000962 11.4562981,90.8148148 13.9415795,90.8148148 L67.9415795,90.8148148 C70.4268608,90.8148148 72.4415795,88.8000962 72.4415795,86.3148148 L72.4415795,45.7143148 L82.0055795,36.8358148 L84.0455795,39.0333148 L75.9200795,46.5783148 C75.3132567,47.1424737 75.2786707,48.0917419 75.8428295,48.6985648 C76.4069884,49.3053876 77.3562566,49.3399736 77.9630795,48.7758148 L86.0915795,41.2338148 C86.6755855,40.6926057 87.0204881,39.9414343 87.0503114,39.1457705 C87.0801347,38.3501066 86.7924322,37.5752238 86.2505795,36.9918148 L84.2105795,34.7943148 L88.6055795,30.7128148 C90.2078344,29.2622272 90.9060867,27.0619909 90.4334939,24.9529435 C89.9609011,22.8438961 88.3905078,21.1520151 86.3224521,20.5238663 C84.2543965,19.8957175 82.0083204,20.4283885 80.4425795,21.9183148 L74.9465795,27.0183148 L72.4415795,29.3403148 L72.4415795,14.3148148 C72.4415795,11.8295334 70.4268608,9.81481481 67.9415795,9.81481481 L63.4415795,9.81481481 L63.4415795,5.31481481 C63.4415795,2.82953344 61.4268608,0.814814815 58.9415795,0.814814815 L16.9415795,0.814814815 C16.9100795,0.814814815 16.8815795,0.831314815 16.8485795,0.832814815 C16.7162,0.841520241 16.5855604,0.867749043 16.4600795,0.910814815 C16.4120795,0.927314815 16.3670795,0.939314815 16.3205795,0.960314815 C16.1573709,1.03332238 16.0085293,1.13492074 15.8810795,1.26031481 L0.881079473,16.2603148 C0.755685394,16.3877647 0.654087037,16.5366063 0.581079473,16.6998148 C0.560079473,16.7448148 0.548079473,16.7928148 0.531579473,16.8393148 C0.488513701,16.9647957 0.462284899,17.0954353 0.453579473,17.2278148 C0.458079473,17.2548148 0.441579473,17.2833148 0.441579473,17.3148148 L0.441579473,77.3148148 C0.441579473,79.8000962 2.4562981,81.8148148 4.94157947,81.8148148 Z M69.4415795,86.3148148 C69.4415795,87.1432419 68.7700066,87.8148148 67.9415795,87.8148148 L13.9415795,87.8148148 C13.1131523,87.8148148 12.4415795,87.1432419 12.4415795,86.3148148 L12.4415795,81.8148148 L58.9415795,81.8148148 C61.4268608,81.8148148 63.4415795,79.8000962 63.4415795,77.3148148 L63.4415795,54.0648148 L69.4415795,48.4953148 L69.4415795,86.3148148 Z M41.5415795,68.2098148 C39.9558049,69.5176531 38.1481385,70.5302106 36.2045795,71.1993148 C36.9854609,69.2915573 38.1204442,67.5488744 39.5495795,66.0633148 L39.6350795,66.1548148 L41.5415795,68.2098148 Z M43.8845795,66.3243148 L42.8345795,65.1933148 L41.6030795,63.8673148 L47.4365795,56.9148148 L51.2465795,61.0218148 L43.8845795,66.3243148 Z M53.5805795,59.1243148 L51.1010795,56.4648148 L49.4990795,54.7383148 L75.8825795,30.2388148 L78.3635795,32.9148148 L79.9655795,34.6413148 L60.9230795,52.3143148 C60.9020795,52.3338148 60.8810795,52.3518148 60.8615795,52.3728148 L53.5805795,59.1243148 Z M82.4780795,24.1158148 C83.0575783,23.5684616 83.8342356,23.2794477 84.6305795,23.3148148 C85.8427479,23.3603593 86.9082058,24.1314019 87.330383,25.2685884 C87.7525602,26.4057748 87.4483682,27.685296 86.5595795,28.5108148 L82.1630795,32.5938148 L79.6835795,29.9208148 L78.0815795,28.1958148 L82.4780795,24.1158148 Z M67.9415795,12.8148148 C68.7700066,12.8148148 69.4415795,13.4863877 69.4415795,14.3148148 L69.4415795,32.1258148 L63.4415795,37.6953148 L63.4415795,12.8148148 L67.9415795,12.8148148 Z M60.4415795,5.31481481 L60.4415795,40.4808148 L46.3580795,53.5548148 C46.3377359,53.5808439 46.3187119,53.6078779 46.3010795,53.6358148 C46.2800795,53.6568148 46.2500795,53.6673148 46.2305795,53.6898148 L44.0285795,56.3148148 L10.9415795,56.3148148 C10.1131523,56.3148148 9.44157947,56.9863877 9.44157947,57.8148148 C9.44157947,58.6432419 10.1131523,59.3148148 10.9415795,59.3148148 L41.5100795,59.3148148 L38.5190795,62.8788148 L38.3180795,63.0663148 C36.2679537,64.953083 34.6420625,67.2538724 33.5480795,69.8163148 L19.9415795,69.8163148 C19.1131523,69.8163148 18.4415795,70.4878877 18.4415795,71.3163148 C18.4415795,72.1447419 19.1131523,72.8163148 19.9415795,72.8163148 L33.6455795,72.8163148 C33.730795,72.9756615 33.8312654,73.1263671 33.9455795,73.2663148 C34.5004387,73.8594261 35.2784223,74.1929254 36.0905795,74.1858148 C36.4238058,74.1861209 36.7551248,74.1355378 37.0730795,74.0358148 C39.8199455,73.1378397 42.3351136,71.6454349 44.4395795,69.6648148 L44.6405795,69.4803148 L54.3785795,62.4648148 C54.4025795,62.4468148 54.4130795,62.4183148 54.4355795,62.4003148 C54.4580795,62.3823148 54.4985795,62.3688148 54.5240795,62.3448148 L60.4415795,56.8548148 L60.4415795,77.3148148 C60.4415795,78.1432419 59.7700066,78.8148148 58.9415795,78.8148148 L4.94157947,78.8148148 C4.11315235,78.8148148 3.44157947,78.1432419 3.44157947,77.3148148 L3.44157947,18.8148148 L13.9415795,18.8148148 C16.4268608,18.8148148 18.4415795,16.8000962 18.4415795,14.3148148 L18.4415795,3.81481481 L58.9415795,3.81481481 C59.7700066,3.81481481 60.4415795,4.48638769 60.4415795,5.31481481 Z M15.4415795,5.93581481 L15.4415795,14.3148148 C15.4415795,15.1432419 14.7700066,15.8148148 13.9415795,15.8148148 L5.56257947,15.8148148 L15.4415795,5.93581481 Z" id="Shape"></path>
                <path d="M10.9415795,72.8148148 L13.9415795,72.8148148 C14.7700066,72.8148148 15.4415795,72.1432419 15.4415795,71.3148148 C15.4415795,70.4863877 14.7700066,69.8148148 13.9415795,69.8148148 L10.9415795,69.8148148 C10.1131523,69.8148148 9.44157947,70.4863877 9.44157947,71.3148148 C9.44157947,72.1432419 10.1131523,72.8148148 10.9415795,72.8148148 Z" id="Path"></path>
                <path d="M9.44157947,27.3148148 C9.44157947,28.1432419 10.1131523,28.8148148 10.9415795,28.8148148 L52.9415795,28.8148148 C53.7700066,28.8148148 54.4415795,28.1432419 54.4415795,27.3148148 C54.4415795,26.4863877 53.7700066,25.8148148 52.9415795,25.8148148 L10.9415795,25.8148148 C10.1131523,25.8148148 9.44157947,26.4863877 9.44157947,27.3148148 Z" id="Path"></path>
                <path d="M52.9415795,33.8148148 L45.4415795,33.8148148 C44.6131523,33.8148148 43.9415795,34.4863877 43.9415795,35.3148148 C43.9415795,36.1432419 44.6131523,36.8148148 45.4415795,36.8148148 L52.9415795,36.8148148 C53.7700066,36.8148148 54.4415795,36.1432419 54.4415795,35.3148148 C54.4415795,34.4863877 53.7700066,33.8148148 52.9415795,33.8148148 Z" id="Path"></path>
                <path d="M10.9415795,36.8148148 L37.9415795,36.8148148 C38.7700066,36.8148148 39.4415795,36.1432419 39.4415795,35.3148148 C39.4415795,34.4863877 38.7700066,33.8148148 37.9415795,33.8148148 L10.9415795,33.8148148 C10.1131523,33.8148148 9.44157947,34.4863877 9.44157947,35.3148148 C9.44157947,36.1432419 10.1131523,36.8148148 10.9415795,36.8148148 Z" id="Path"></path>
                <path d="M18.4415795,41.8148148 L10.9415795,41.8148148 C10.1131523,41.8148148 9.44157947,42.4863877 9.44157947,43.3148148 C9.44157947,44.1432419 10.1131523,44.8148148 10.9415795,44.8148148 L18.4415795,44.8148148 C19.2700066,44.8148148 19.9415795,44.1432419 19.9415795,43.3148148 C19.9415795,42.4863877 19.2700066,41.8148148 18.4415795,41.8148148 Z" id="Path"></path>
                <path d="M51.4415795,41.8148148 L25.9415795,41.8148148 C25.1131523,41.8148148 24.4415795,42.4863877 24.4415795,43.3148148 C24.4415795,44.1432419 25.1131523,44.8148148 25.9415795,44.8148148 L51.4415795,44.8148148 C52.2700066,44.8148148 52.9415795,44.1432419 52.9415795,43.3148148 C52.9415795,42.4863877 52.2700066,41.8148148 51.4415795,41.8148148 Z" id="Path"></path>
                <path d="M15.4415795,48.8148148 L10.9415795,48.8148148 C10.1131523,48.8148148 9.44157947,49.4863877 9.44157947,50.3148148 C9.44157947,51.1432419 10.1131523,51.8148148 10.9415795,51.8148148 L15.4415795,51.8148148 C16.2700066,51.8148148 16.9415795,51.1432419 16.9415795,50.3148148 C16.9415795,49.4863877 16.2700066,48.8148148 15.4415795,48.8148148 Z" id="Path"></path>
                <path d="M42.4415795,48.8148148 L22.9415795,48.8148148 C22.1131523,48.8148148 21.4415795,49.4863877 21.4415795,50.3148148 C21.4415795,51.1432419 22.1131523,51.8148148 22.9415795,51.8148148 L42.4415795,51.8148148 C43.2700066,51.8148148 43.9415795,51.1432419 43.9415795,50.3148148 C43.9415795,49.4863877 43.2700066,48.8148148 42.4415795,48.8148148 Z" id="Path"></path>
                <path d="M28.9415795,13.8148148 L40.9415795,13.8148148 C41.7700066,13.8148148 42.4415795,13.1432419 42.4415795,12.3148148 C42.4415795,11.4863877 41.7700066,10.8148148 40.9415795,10.8148148 L28.9415795,10.8148148 C28.1131523,10.8148148 27.4415795,11.4863877 27.4415795,12.3148148 C27.4415795,13.1432419 28.1131523,13.8148148 28.9415795,13.8148148 Z" id="Path"></path>
            </g>
        </g>
    </g>
</svg>